rrricanes in Data World • rrricanes
…
Earlier we saw there were two storms named Katrina. Let’s build a query and return all the adv observations we have for Katrina (Key “AL122005”).

ds %>% sql(query = 
"SELECT * 
FROM adv
WHERE Key = 'AL122005';")

## # A tibble: 31 x 19
##         key   adv                date              status    name   lat
##       <chr> <int>              <dttm>               <chr>   <chr> <dbl>
##  1 AL122005     1 2005-08-23 21:00:00 Tropical Depression  Twelve  23.2
##  2 AL122005     2 2005-08-24 03:00:00 Tropical Depression  Twelve  23.4
##  3 AL122005     3 2005-08-24 09:00:00 Tropical Depression  Twelve  24.0
##  4 AL122005     4 2005-08-24 15:00:00      Tropical Storm Katrina  24.7
##  5 AL122005     5 2005-08-24 21:00:00      Tropical Storm Katrina  25.6
##  6 AL122005     6 2005-08-25 03:00:00      Tropical Storm Katrina  26.0
##  7 AL122005     7 2005-08-25 09:00:00      Tropical Storm Katrina  26.2
##  8 AL122005     8 2005-08-25 15:00:00      Tropical Storm Katrina  26.2
##  9 AL122005     9 2005-08-25 21:00:00           Hurricane Katrina  26.1
## 10 AL122005    10 2005-08-26 03:00:00           Hurricane Katrina  25.5
## # ... with 21 more rows, and 13 more variables: lon <dbl>, wind <int>,
## #   gust <int>, pressure <int>, posacc <int>, fwddir <int>,
## #   fwdspeed <int>, eye <int>, seasne <int>, seasse <int>, seassw <int>,
## #   seasnw <int>, location <chr>
…
## # A tibble: 5 x 8
##        key   adv                date windfield    ne    se    sw    nw
##      <chr> <int>              <dttm>     <int> <int> <int> <int> <int>
## 1 AL011998     7 1998-07-29 03:00:00        34   100    50    50   100
## 2 AL011998     8 1998-07-29 09:00:00        34   100    50    50   100
## 3 AL011998    17 1998-07-31 15:00:00        34   125    25    25   125
## 4 AL012004    17 2004-08-04 15:00:00        50    40    75    50    50
## 5 AL032004    21 2004-08-14 09:00:00        50    50    75    30    25

ds %>% sql(query = 
"SELECT * 
FROM wr
WHERE Key = 'AL122005';")

## # A tibble: 69 x 8
##         key   adv                date windfield    ne    se    sw    nw
##       <chr> <int>              <dttm>     <int> <int> <int> <int> <int>
##  1 AL122005     4 2005-08-24 15:00:00        34    60    60     0     0
##  2 AL122005     5 2005-08-24 21:00:00        34    60    60     0     0
##  3 AL122005     6 2005-08-25 03:00:00        34    60    60     0     0
##  4 AL122005     7 2005-08-25 09:00:00        34    60    60     0     0
##  5 AL122005     8 2005-08-25 15:00:00        34    60    60    30    50
##  6 AL122005     8 2005-08-25 15:00:00        50    20    20     0     0
##  7 AL122005     9 2005-08-25 21:00:00        34    70    70    50    60
##  8 AL122005     9 2005-08-25 21:00:00        50    25    25    20    20
##  9 AL122005     9 2005-08-25 21:00:00        64    15    15    10    10
## 10 AL122005    10 2005-08-26 03:00:00        34    60    60    30    60
## # ... with 59 more rows
…
ds %>% sql(query = 
"SELECT * 
FROM fcst
WHERE Key = 'AL122005';")

## # A tibble: 183 x 9
##         key   adv                date            fcstdate   lat   lon
##       <chr> <int>              <dttm>              <dttm> <dbl> <dbl>
##  1 AL122005     1 2005-08-23 21:00:00 2005-08-24 06:00:00  24.0 -76.5
##  2 AL122005     1 2005-08-23 21:00:00 2005-08-24 18:00:00  25.0 -77.7
##  3 AL122005     1 2005-08-23 21:00:00 2005-08-25 06:00:00  25.7 -78.5
##  4 AL122005     1 2005-08-23 21:00:00 2005-08-25 18:00:00  26.0 -79.4
##  5 AL122005     1 2005-08-23 21:00:00 2005-08-26 18:00:00  26.3 -81.0
##  6 AL122005     1 2005-08-23 21:00:00 2005-08-27 18:00:00  26.5 -83.5
##  7 AL122005     2 2005-08-24 03:00:00 2005-08-24 12:00:00  24.2 -76.7
##  8 AL122005     2 2005-08-24 03:00:00 2005-08-25 00:00:00  25.1 -77.7
##  9 AL122005     2 2005-08-24 03:00:00 2005-08-25 12:00:00  25.7 -78.5
## 10 AL122005     2 2005-08-24 03:00:00 2005-08-26 00:00:00  26.1 -79.5
## # ... with 173 more rows, and 3 more variables: wind <int>, gust <int>,
## #   location <chr>
…
ds %>% sql(query = 
"SELECT * 
FROM fcst_wr
WHERE Key = 'AL122005';")

## # A tibble: 274 x 9
##         key   adv                date            fcstdate windfield    ne
##       <chr> <int>              <dttm>              <dttm>     <int> <int>
##  1 AL122005     1 2005-08-23 21:00:00 2005-08-24 06:00:00        34    60
##  2 AL122005     1 2005-08-23 21:00:00 2005-08-24 18:00:00        34    60
##  3 AL122005     1 2005-08-23 21:00:00 2005-08-25 06:00:00        34    60
##  4 AL122005     1 2005-08-23 21:00:00 2005-08-25 18:00:00        34    70
##  5 AL122005     1 2005-08-23 21:00:00 2005-08-25 18:00:00        50    35
##  6 AL122005     1 2005-08-23 21:00:00 2005-08-26 18:00:00        34    70
##  7 AL122005     1 2005-08-23 21:00:00 2005-08-26 18:00:00        50    25
##  8 AL122005     2 2005-08-24 03:00:00 2005-08-24 12:00:00        34    60
##  9 AL122005     2 2005-08-24 03:00:00 2005-08-25 00:00:00        34    60
## 10 AL122005     2 2005-08-24 03:00:00 2005-08-25 12:00:00        34    60
## # ... with 264 more rows, and 3 more variables: se <int>, sw <int>,
## #   nw <int>
…
ds %>% sql(query = 
"SELECT * 
FROM wndprb
WHERE Key = 'AL012006';")

## # A tibble: 1,754 x 18
##         key   adv                date       location  wind wind12 wind24
##       <chr> <int>              <dttm>          <chr> <int>  <int>  <int>
##  1 AL012006     1 2006-06-10 13:00:00  ILE ST PIERRE    34      0      0
##  2 AL012006     1 2006-06-10 13:00:00    BURGEO NFLD    34      0      0
##  3 AL012006     1 2006-06-10 13:00:00     ST JOHN NB    34      0      0
##  4 AL012006     1 2006-06-10 13:00:00 PANAMA CITY FL    64      0      0
##  5 AL012006     9 2006-06-12 09:00:00    FT MYERS FL    34      5     11
##  6 AL012006     9 2006-06-12 09:00:00      VENICE FL    34     11     15
##  7 AL012006     9 2006-06-12 09:00:00      VENICE FL    50      0      1
##  8 AL012006     9 2006-06-12 09:00:00       TAMPA FL    34     10     19
##  9 AL012006     9 2006-06-12 09:00:00       TAMPA FL    50      0      1
## 10 AL012006     9 2006-06-12 09:00:00   CEDAR KEY FL    34     11     24
## # ... with 1,744 more rows, and 11 more variables: wind24cum <int>,
## #   wind36 <int>, wind36cum <int>, wind48 <int>, wind48cum <int>,
## #   wind72 <int>, wind72cum <int>, wind96 <int>, wind96cum <int>,
## #   wind120 <int>, wind120cum <int>
…
